\relax 
\providecommand\zref@newlabel[2]{}
\providecommand\hyper@newdestlabel[2]{}
\providecommand\HyperFirstAtBeginDocument{\AtBeginDocument}
\HyperFirstAtBeginDocument{\ifx\hyper@anchor\@undefined
\global\let\oldcontentsline\contentsline
\gdef\contentsline#1#2#3#4{\oldcontentsline{#1}{#2}{#3}}
\global\let\oldnewlabel\newlabel
\gdef\newlabel#1#2{\newlabelxx{#1}#2}
\gdef\newlabelxx#1#2#3#4#5#6{\oldnewlabel{#1}{{#2}{#3}}}
\AtEndDocument{\ifx\hyper@anchor\@undefined
\let\contentsline\oldcontentsline
\let\newlabel\oldnewlabel
\fi}
\fi}
\global\let\hyper@last\relax 
\gdef\HyperFirstAtBeginDocument#1{#1}
\providecommand\HyField@AuxAddToFields[1]{}
\providecommand\HyField@AuxAddToCoFields[2]{}
\bibstyle{unsrtnat}
\citation{ER59}
\citation{BA99}
\citation{NS19a}
\citation{ER59}
\citation{NSW01}
\citation{Newman2010}
\citation{Newman_2005}
\citation{BA99}
\citation{Pri76}
\citation{WS98}
\citation{NS19a}
\@LN@col{1}
\babel@aux{english}{}
\@LN@col{2}
\citation{SCDPMR17}
\citation{BB19,BBSA08}
\bibdata{bibliography}
\bibcite{ER59}{{1}{1959}{{Erd{\H o}s and R{\'e}nyi}}{{}}}
\bibcite{BA99}{{2}{1999}{{Barab{\'a}si and Albert}}{{}}}
\bibcite{NS19a}{{3}{2019}{{Nagli{\'c} and {\v S}ubelj}}{{}}}
\bibcite{NSW01}{{4}{2001}{{Newman et~al.}}{{Newman, Strogatz, and Watts}}}
\bibcite{Newman2010}{{5}{2010}{{Newman}}{{}}}
\bibcite{Newman_2005}{{6}{2005}{{Newman}}{{}}}
\bibcite{Pri76}{{7}{1976}{{Price}}{{}}}
\@LN@col{1}
\newlabel{proposal}{{}{2}{}{Doc-Start}{}}
\@writefile{toc}{\contentsline {subsection}{\numberline {A}Motivation}{2}{subsection.0.1}}
\@writefile{toc}{\contentsline {subsection}{\numberline {B}Core ideas}{2}{subsection.0.2}}
\newlabel{ideas}{{B}{2}{Core ideas}{subsection.0.2}{}}
\@LN@col{2}
\@writefile{lof}{\contentsline {figure}{\numberline {1}{\ignorespaces Realisation of node shrinking.\relax }}{2}{figure.caption.1}}
\providecommand*\caption@xref[2]{\@setref\relax\@undefined{#1}}
\newlabel{fig:shrink}{{1}{2}{Realisation of node shrinking.\relax }{figure.caption.1}{}}
\@writefile{lof}{\contentsline {figure}{\numberline {2}{\ignorespaces Realisation of graph expansion by splitting a node; the two new nodes inherit all edges from the original node.\relax }}{2}{figure.caption.2}}
\newlabel{fig:expand1}{{2}{2}{Realisation of graph expansion by splitting a node; the two new nodes inherit all edges from the original node.\relax }{figure.caption.2}{}}
\@writefile{toc}{\contentsline {subsection}{\numberline {C}Expected contributions}{2}{subsection.0.3}}
\@writefile{toc}{\contentsline {subsection}{\numberline {D}Methods and algorithms}{2}{subsection.0.4}}
\@writefile{lof}{\contentsline {figure}{\numberline {3}{\ignorespaces Realisation of graph expansion by splitting a node; the two new nodes each inherit half of edges from the original node. Note that splitting a node with a single edge is currently undefined. \relax }}{2}{figure.caption.3}}
\newlabel{fig:expand2}{{3}{2}{Realisation of graph expansion by splitting a node; the two new nodes each inherit half of edges from the original node. Note that splitting a node with a single edge is currently undefined. \relax }{figure.caption.3}{}}
\bibcite{WS98}{{8}{1998}{{Watts and Strogatz}}{{}}}
\bibcite{SCDPMR17}{{9}{2017}{{Schieber et~al.}}{{Schieber, Carpi, D{\'i}az-Guilera, Pardalos, Masoller, and Ravetti}}}
\bibcite{BB19}{{10}{2019}{{Bagrow and Bollt}}{{}}}
\bibcite{BBSA08}{{11}{2008}{{Bagrow et~al.}}{{Bagrow, Bollt, Skufca, and ben Avraham}}}
\@LN@col{1}
\@writefile{lof}{\contentsline {figure}{\numberline {4}{\ignorespaces Realisation of graph expansion by preferential attachment. A single edge is added between the two selected nodes.\relax }}{3}{figure.caption.4}}
\newlabel{fig:expand3}{{4}{3}{Realisation of graph expansion by preferential attachment. A single edge is added between the two selected nodes.\relax }{figure.caption.4}{}}
\@LN@col{2}
\newlabel{LastPage}{{}{3}{}{page.3}{}}
\xdef\lastpage@lastpage{3}
\xdef\lastpage@lastpageHy{3}
