# ER

graph      | ExpandingShrinking [iter: 0; alpha: 0.000000]
Nodes      | 22000 (8018, 8170)
Edges      | 11000
<k>        | 1 (6)
Density    | 2.27283e-05
<C>        | 0
r          | 0.0112265
Diameter90 | 7.23949
<d>        | 0.0769149
LCC        | 4.82727% (11002)

graph      | ExpandingShrinking [iter: 5000; alpha: 0.000000]
Nodes      | 27000 (9898, 8089)
Edges      | 16695
<k>        | 1.23667 (12)
Density    | 2.29021e-05
<C>        | 0
r          | 0.0291626
Diameter90 | 5.51428
<d>        | 0.0239251
LCC        | 1.99259% (12804)

graph      | ExpandingShrinking [iter: 10000; alpha: 0.000000]
Nodes      | 32000 (11756, 8231)
Edges      | 23216
<k>        | 1.451 (12)
Density    | 2.26726e-05
<C>        | 0
r          | 0.0326041
Diameter90 | 5.09049
<d>        | 0.0196831
LCC        | 2.25312% (14662)

graph      | ExpandingShrinking [iter: 15000; alpha: 0.000000]
Nodes      | 37000 (13530, 8138)
Edges      | 31203
<k>        | 1.68665 (18)
Density    | 2.27932e-05
<C>        | 0
r          | -0.00564426
Diameter90 | 6.07925
<d>        | 0.0521429
LCC        | 3.85405% (16463)

graph      | ExpandingShrinking [iter: 20000; alpha: 0.000000]
Nodes      | 42000 (15249, 8222)
Edges      | 40550
<k>        | 1.93095 (21)
Density    | 2.29881e-05
<C>        | 6.34921e-05
r          | -0.00954833
Diameter90 | 6.27394
<d>        | 0.0468775
LCC        | 3.07619% (18208)

graph      | ExpandingShrinking [iter: 25000; alpha: 0.000000]
Nodes      | 47000 (17010, 8270)
Edges      | 50616
<k>        | 2.15387 (22)
Density    | 2.2914e-05
<C>        | 0
r          | 0.0389698
Diameter90 | 5.31173
<d>        | 0.0175586
LCC        | 1.64894% (20002)

graph      | ExpandingShrinking [iter: 30000; alpha: 0.000000]
Nodes      | 52000 (18895, 8150)
Edges      | 61695
<k>        | 2.37288 (25)
Density    | 2.28166e-05
<C>        | 0
r          | -0.0190722
Diameter90 | 4.64611
<d>        | 0.0138821
LCC        | 1.73077% (21898)

graph      | ExpandingShrinking [iter: 35000; alpha: 0.000000]
Nodes      | 57000 (21050, 8248)
Edges      | 73052
<k>        | 2.56323 (28)
Density    | 2.24849e-05
<C>        | 0
r          | 0.00148428
Diameter90 | 5.79269
<d>        | 0.045538
LCC        | 3.56491% (23969)

graph      | ExpandingShrinking [iter: 40000; alpha: 0.000000]
Nodes      | 62000 (22556, 8445)
Edges      | 85854
<k>        | 2.76948 (32)
Density    | 2.23349e-05
<C>        | 0
r          | -0.0377255
Diameter90 | 4.72896
<d>        | 0.0104239
LCC        | 1.25323% (25542)

graph      | ExpandingShrinking [iter: 45000; alpha: 0.000000]
Nodes      | 67000 (24564, 7868)
Edges      | 102578
<k>        | 3.06203 (37)
Density    | 2.28513e-05
<C>        | 0
r          | 0.00886996
Diameter90 | 5.28524
<d>        | 0.0259944
LCC        | 2.77164% (27480)

graph      | ExpandingShrinking [iter: 50000; alpha: 0.000000]
Nodes      | 72000 (26430, 8175)
Edges      | 116706
<k>        | 3.24183 (42)
Density    | 2.2513e-05
<C>        | 0
r          | -0.0434429
Diameter90 | 5.97477
<d>        | 0.0395743
LCC        | 3.15139% (29318)

graph      | ExpandingShrinking [iter: 55000; alpha: 0.000000]
Nodes      | 77000 (28206, 8025)
Edges      | 136020
<k>        | 3.53299 (38)
Density    | 2.29418e-05
<C>        | 0
r          | -0.00358168
Diameter90 | 5.82175
<d>        | 0.0327764
LCC        | 2.78182% (31110)

graph      | ExpandingShrinking [iter: 60000; alpha: 0.000000]
Nodes      | 82000 (30068, 7880)
Edges      | 153043
<k>        | 3.73276 (39)
Density    | 2.2761e-05
<C>        | 0
r          | -0.0193308
Diameter90 | 6.20759
<d>        | 0.0456222
LCC        | 2.7939% (33001)

graph      | ExpandingShrinking [iter: 65000; alpha: 0.000000]
Nodes      | 87000 (32285, 8169)
Edges      | 172999
<k>        | 3.97699 (52)
Density    | 2.28565e-05
<C>        | 0
r          | -0.0197092
Diameter90 | 6.33806
<d>        | 0.0467983
LCC        | 3.71724% (35135)

graph      | ExpandingShrinking [iter: 70000; alpha: 0.000000]
Nodes      | 92000 (34307, 8026)
Edges      | 191282
<k>        | 4.1583 (46)
Density    | 2.25997e-05
<C>        | 0
r          | 0.000662001
Diameter90 | 5.8808
<d>        | 0.036102
LCC        | 3.06087% (37192)

graph      | ExpandingShrinking [iter: 75000; alpha: 0.000000]
Nodes      | 97000 (35923, 8268)
Edges      | 210822
<k>        | 4.34685 (56)
Density    | 2.24067e-05
<C>        | 0
r          | -0.0593135
Diameter90 | 6.49011
<d>        | 0.046168
LCC        | 3.07732% (38775)

graph      | ExpandingShrinking [iter: 80000; alpha: 0.000000]
Nodes      | 102000 (37195, 7842)
Edges      | 241370
<k>        | 4.73275 (58)
Density    | 2.32e-05
<C>        | 0
r          | 0.0269763
Diameter90 | 6.69472
<d>        | 0.0909281
LCC        | 5.28333% (40092)

graph      | ExpandingShrinking [iter: 85000; alpha: 0.000000]
Nodes      | 107000 (39653, 8306)
Edges      | 262911
<k>        | 4.91422 (64)
Density    | 2.29639e-05
<C>        | 0
r          | 0.0170718
Diameter90 | 5.93238
<d>        | 0.0292775
LCC        | 2.90841% (42479)

graph      | ExpandingShrinking [iter: 90000; alpha: 0.000000]
Nodes      | 112000 (40606, 7584)
Edges      | 292157
<k>        | 5.21709 (76)
Density    | 2.32908e-05
<C>        | 0
r          | -0.00781944
Diameter90 | 4.66933
<d>        | 0.0104585
LCC        | 1.44732% (43499)

graph      | ExpandingShrinking [iter: 95000; alpha: 0.000000]
Nodes      | 117000 (42894, 8011)
Edges      | 310895
<k>        | 5.31444 (67)
Density    | 2.27115e-05
<C>        | 2.05128e-05
r          | -0.0250261
Diameter90 | 9.75361
<d>        | 0.285548
LCC        | 7.37521% (45784)

graph      | ExpandingShrinking [iter: 100000; alpha: 0.000000]
Nodes      | 122000 (45240, 8350)
Edges      | 336930
<k>        | 5.52344 (70)
Density    | 2.26372e-05
<C>        | 0
r          | -0.0294224
Diameter90 | 8.60658
<d>        | 0.140799
LCC        | 5.36148% (48133)

graph      | ExpandingShrinking [iter: 0; alpha: 0.100000]
Nodes      | 22000 (8024, 8166)
Edges      | 11000
<k>        | 1 (7)
Density    | 2.27283e-05
<C>        | 7.57576e-05
r          | -0.00449723
Diameter90 | 5.32515
<d>        | 0.0106712
LCC        | 1.30455% (11001)

graph      | ExpandingShrinking [iter: 5000; alpha: 0.100000]
Nodes      | 26026 (9528, 7763)
Edges      | 15935
<k>        | 1.22454 (12)
Density    | 2.35263e-05
<C>        | 0
r          | -0.0217235
Diameter90 | 8.94698
<d>        | 0.261946
LCC        | 8.55683% (12221)

graph      | ExpandingShrinking [iter: 10000; alpha: 0.100000]
Nodes      | 30042 (10886, 7686)
Edges      | 21917
<k>        | 1.45909 (13)
Density    | 2.4285e-05
<C>        | 5.86481e-05
r          | -0.0242476
Diameter90 | 18.9841
<d>        | 1.416
LCC        | 16.8165% (13359)

graph      | ExpandingShrinking [iter: 15000; alpha: 0.100000]
Nodes      | 33960 (12150, 7531)
Edges      | 29081
<k>        | 1.71266 (21)
Density    | 2.52166e-05
<C>        | 0
r          | 0.0165483
Diameter90 | 17.9999
<d>        | 1.92793
LCC        | 22.0259% (14445)

graph      | ExpandingShrinking [iter: 20000; alpha: 0.100000]
Nodes      | 38062 (13540, 7353)
Edges      | 37466
<k>        | 1.96868 (21)
Density    | 2.58622e-05
<C>        | 0
r          | -0.00113481
Diameter90 | 19.6238
<d>        | 2.4136
LCC        | 27.4631% (15638)

graph      | ExpandingShrinking [iter: 25000; alpha: 0.100000]
Nodes      | 41962 (14704, 7310)
Edges      | 46554
<k>        | 2.21886 (24)
Density    | 2.64396e-05
<C>        | 0
r          | -0.0249611
Diameter90 | 18.3192
<d>        | 3.01136
LCC        | 31.693% (16675)

graph      | ExpandingShrinking [iter: 30000; alpha: 0.100000]
Nodes      | 45904 (15803, 7114)
Edges      | 57284
<k>        | 2.49582 (31)
Density    | 2.71858e-05
<C>        | 0
r          | -0.057799
Diameter90 | 20.0161
<d>        | 3.05914
LCC        | 34.6397% (17644)

graph      | ExpandingShrinking [iter: 35000; alpha: 0.100000]
Nodes      | 49988 (17718, 7160)
Edges      | 67111
<k>        | 2.68508 (37)
Density    | 2.68578e-05
<C>        | 7.35203e-06
r          | 0.0130212
Diameter90 | 17.5133
<d>        | 3.43487
LCC        | 38.1712% (19382)

graph      | ExpandingShrinking [iter: 40000; alpha: 0.100000]
Nodes      | 53846 (18275, 7096)
Edges      | 82254
<k>        | 3.05516 (46)
Density    | 2.83699e-05
<C>        | 0
r          | -0.0258734
Diameter90 | 18.9354
<d>        | 3.83457
LCC        | 42.8147% (19801)

graph      | ExpandingShrinking [iter: 45000; alpha: 0.100000]
Nodes      | 57914 (19471, 7039)
Edges      | 96092
<k>        | 3.31844 (43)
Density    | 2.86502e-05
<C>        | 3.70007e-05
r          | -0.0643606
Diameter90 | 17.7949
<d>        | 3.8306
LCC        | 45.3794% (20922)

graph      | ExpandingShrinking [iter: 50000; alpha: 0.100000]
Nodes      | 62106 (21288, 6766)
Edges      | 112586
<k>        | 3.62561 (41)
Density    | 2.91893e-05
<C>        | 0
r          | -0.00502608
Diameter90 | 16.2009
<d>        | 4.11563
LCC        | 47.5767% (22611)

graph      | ExpandingShrinking [iter: 55000; alpha: 0.100000]
Nodes      | 65968 (22124, 7139)
Edges      | 129256
<k>        | 3.91875 (70)
Density    | 2.97023e-05
<C>        | 0.000112089
r          | 0.00740966
Diameter90 | 16.0539
<d>        | 4.14685
LCC        | 50.3593% (23367)

graph      | ExpandingShrinking [iter: 60000; alpha: 0.100000]
Nodes      | 70028 (23162, 6727)
Edges      | 148429
<k>        | 4.23913 (53)
Density    | 3.02678e-05
<C>        | 0
r          | -0.0407462
Diameter90 | 14.7858
<d>        | 4.11547
LCC        | 51.3009% (24322)

graph      | ExpandingShrinking [iter: 65000; alpha: 0.100000]
Nodes      | 74026 (24460, 6756)
Edges      | 167689
<k>        | 4.53054 (65)
Density    | 3.06014e-05
<C>        | 2.88293e-05
r          | -0.0260254
Diameter90 | 16.9947
<d>        | 4.29418
LCC        | 53.2326% (25494)

graph      | ExpandingShrinking [iter: 70000; alpha: 0.100000]
Nodes      | 77808 (25975, 6267)
Edges      | 192272
<k>        | 4.94222 (63)
Density    | 3.17595e-05
<C>        | 3.63656e-06
r          | 0.00864537
Diameter90 | 14.2856
<d>        | 4.20073
LCC        | 55.777% (26897)

graph      | ExpandingShrinking [iter: 75000; alpha: 0.100000]
Nodes      | 82132 (26440, 6926)
Edges      | 211310
<k>        | 5.14562 (73)
Density    | 3.13257e-05
<C>        | 0
r          | -0.0127257
Diameter90 | 14.5486
<d>        | 4.3862
LCC        | 56.2241% (27377)

graph      | ExpandingShrinking [iter: 80000; alpha: 0.100000]
Nodes      | 85956 (28430, 6890)
Edges      | 229944
<k>        | 5.35027 (72)
Density    | 3.11225e-05
<C>        | 3.69055e-06
r          | -0.0354921
Diameter90 | 13.5488
<d>        | 4.27667
LCC        | 57.8191% (29233)

graph      | ExpandingShrinking [iter: 85000; alpha: 0.100000]
Nodes      | 90184 (30208, 6404)
Edges      | 256028
<k>        | 5.6779 (78)
Density    | 3.14799e-05
<C>        | 4.70805e-05
r          | -0.0177742
Diameter90 | 13.7788
<d>        | 4.1555
LCC        | 57.6865% (31009)

graph      | ExpandingShrinking [iter: 90000; alpha: 0.100000]
Nodes      | 93988 (30721, 6124)
Edges      | 291150
<k>        | 6.19547 (105)
Density    | 3.29592e-05
<C>        | 3.90066e-06
r          | 0.00786694
Diameter90 | 13.0358
<d>        | 4.24732
LCC        | 59.6725% (31471)

graph      | ExpandingShrinking [iter: 95000; alpha: 0.100000]
Nodes      | 98110 (31947, 6297)
Edges      | 316956
<k>        | 6.46124 (92)
Density    | 3.29289e-05
<C>        | 4.81222e-05
r          | 0.00303555
Diameter90 | 13.5667
<d>        | 4.16223
LCC        | 60.1345% (32623)

graph      | ExpandingShrinking [iter: 100000; alpha: 0.100000]
Nodes      | 101874 (33210, 6205)
Edges      | 344625
<k>        | 6.76571 (103)
Density    | 3.32066e-05
<C>        | 9.01896e-07
r          | -0.00888572
Diameter90 | 12.5777
<d>        | 4.20004
LCC        | 61.2433% (33799)

graph      | ExpandingShrinking [iter: 0; alpha: 0.200000]
Nodes      | 22000 (8004, 8246)
Edges      | 11000
<k>        | 1 (7)
Density    | 2.27283e-05
<C>        | 0
r          | -0.00409092
Diameter90 | 5.81783
<d>        | 0.0294158
LCC        | 2.83182% (11002)

graph      | ExpandingShrinking [iter: 5000; alpha: 0.200000]
Nodes      | 25022 (8955, 7694)
Edges      | 15459
<k>        | 1.23563 (12)
Density    | 2.46919e-05
<C>        | 0
r          | -0.00247426
Diameter90 | 16.297
<d>        | 1.05063
LCC        | 15.2106% (11512)

graph      | ExpandingShrinking [iter: 10000; alpha: 0.200000]
Nodes      | 28004 (9747, 7194)
Edges      | 20970
<k>        | 1.49764 (16)
Density    | 2.67408e-05
<C>        | 0
r          | 0.00690374
Diameter90 | 19.7254
<d>        | 2.12691
LCC        | 24.2608% (11926)

graph      | ExpandingShrinking [iter: 15000; alpha: 0.200000]
Nodes      | 30972 (10500, 7112)
Edges      | 27444
<k>        | 1.77218 (18)
Density    | 2.86103e-05
<C>        | 0.000268651
r          | -0.00659875
Diameter90 | 18.1419
<d>        | 2.84325
LCC        | 33.9855% (12360)

graph      | ExpandingShrinking [iter: 20000; alpha: 0.200000]
Nodes      | 33950 (11426, 6785)
Edges      | 35113
<k>        | 2.06851 (25)
Density    | 3.0465e-05
<C>        | 2.44233e-05
r          | 0.0473375
Diameter90 | 18.4887
<d>        | 3.79356
LCC        | 42.7541% (12913)

graph      | ExpandingShrinking [iter: 25000; alpha: 0.200000]
Nodes      | 37148 (12392, 6470)
Edges      | 43543
<k>        | 2.3443 (29)
Density    | 3.15543e-05
<C>        | 0
r          | 0.00805182
Diameter90 | 16.5523
<d>        | 4.09861
LCC        | 47.6472% (13642)

graph      | ExpandingShrinking [iter: 30000; alpha: 0.200000]
Nodes      | 39826 (12720, 6157)
Edges      | 54033
<k>        | 2.71345 (33)
Density    | 3.40672e-05
<C>        | 5.89795e-05
r          | -0.00289087
Diameter90 | 15.6561
<d>        | 4.40983
LCC        | 53.096% (13768)

graph      | ExpandingShrinking [iter: 35000; alpha: 0.200000]
Nodes      | 43098 (13725, 5997)
Edges      | 65822
<k>        | 3.05453 (38)
Density    | 3.54378e-05
<C>        | 0
r          | -0.0161702
Diameter90 | 14.9971
<d>        | 4.24597
LCC        | 55.2067% (14662)

graph      | ExpandingShrinking [iter: 40000; alpha: 0.200000]
Nodes      | 46012 (14056, 5817)
Edges      | 80681
<k>        | 3.50695 (40)
Density    | 3.811e-05
<C>        | 9.55202e-05
r          | 0.00540379
Diameter90 | 15.3537
<d>        | 4.42072
LCC        | 59.5497% (14812)

graph      | ExpandingShrinking [iter: 45000; alpha: 0.200000]
Nodes      | 49222 (15260, 5605)
Edges      | 92887
<k>        | 3.77421 (43)
Density    | 3.83394e-05
<C>        | 1.24154e-06
r          | -0.00281354
Diameter90 | 12.9102
<d>        | 4.31935
LCC        | 61.2043% (15893)

graph      | ExpandingShrinking [iter: 50000; alpha: 0.200000]
Nodes      | 52102 (15570, 5515)
Edges      | 110749
<k>        | 4.25124 (52)
Density    | 4.0798e-05
<C>        | 5.98312e-06
r          | 0.00805049
Diameter90 | 14.0991
<d>        | 4.28314
LCC        | 63.1742% (16152)

graph      | ExpandingShrinking [iter: 55000; alpha: 0.200000]
Nodes      | 54800 (16723, 5209)
Edges      | 123247
<k>        | 4.49807 (77)
Density    | 4.10415e-05
<C>        | 4.57816e-05
r          | -0.0278785
Diameter90 | 11.082
<d>        | 3.97527
LCC        | 63.4252% (17239)

graph      | ExpandingShrinking [iter: 60000; alpha: 0.200000]
Nodes      | 58282 (17195, 5234)
Edges      | 147087
<k>        | 5.04742 (62)
Density    | 4.33025e-05
<C>        | 5.76238e-05
r          | 0.0276364
Diameter90 | 11.2796
<d>        | 4.18672
LCC        | 65.8334% (17643)

graph      | ExpandingShrinking [iter: 65000; alpha: 0.200000]
Nodes      | 60930 (17597, 4933)
Edges      | 167046
<k>        | 5.48321 (72)
Density    | 4.49967e-05
<C>        | 7.59275e-06
r          | -0.0130162
Diameter90 | 11.262
<d>        | 4.16472
LCC        | 67.525% (17941)

graph      | ExpandingShrinking [iter: 70000; alpha: 0.200000]
Nodes      | 63696 (18608, 4657)
Edges      | 194448
<k>        | 6.1055 (79)
Density    | 4.79276e-05
<C>        | 0.000214908
r          | -0.00617675
Diameter90 | 10.381
<d>        | 3.92744
LCC        | 67.9462% (18903)

graph      | ExpandingShrinking [iter: 75000; alpha: 0.200000]
Nodes      | 67156 (19002, 4996)
Edges      | 219064
<k>        | 6.52403 (87)
Density    | 4.85744e-05
<C>        | 0.000237303
r          | -0.0248854
Diameter90 | 11.3081
<d>        | 4.02897
LCC        | 69.3534% (19272)

graph      | ExpandingShrinking [iter: 80000; alpha: 0.200000]
Nodes      | 70034 (19551, 4835)
Edges      | 247880
<k>        | 7.07885 (124)
Density    | 5.05394e-05
<C>        | 0.000115615
r          | 0.0515304
Diameter90 | 9.96597
<d>        | 3.89791
LCC        | 69.9175% (19773)

graph      | ExpandingShrinking [iter: 85000; alpha: 0.200000]
Nodes      | 72960 (20857, 4698)
Edges      | 271724
<k>        | 7.44857 (96)
Density    | 5.10463e-05
<C>        | 0.00022504
r          | 0.00753896
Diameter90 | 10.2425
<d>        | 3.70469
LCC        | 69.6368% (21061)

graph      | ExpandingShrinking [iter: 90000; alpha: 0.200000]
Nodes      | 75932 (21004, 4540)
Edges      | 300693
<k>        | 7.92006 (112)
Density    | 5.2153e-05
<C>        | 0.00050903
r          | 0.00413872
Diameter90 | 9.5481
<d>        | 3.75883
LCC        | 70.7238% (21194)

graph      | ExpandingShrinking [iter: 95000; alpha: 0.200000]
Nodes      | 79188 (21726, 4627)
Edges      | 328214
<k>        | 8.28949 (115)
Density    | 5.23412e-05
<C>        | 7.72303e-05
r          | -0.0283509
Diameter90 | 10.258
<d>        | 3.73939
LCC        | 71.1951% (21889)

graph      | ExpandingShrinking [iter: 100000; alpha: 0.200000]
Nodes      | 82048 (22483, 4200)
Edges      | 379498
<k>        | 9.25063 (123)
Density    | 5.6374e-05
<C>        | 4.29701e-05
r          | 0.0390694
Diameter90 | 8.54598
<d>        | 3.52179
LCC        | 71.3497% (22631)

graph      | ExpandingShrinking [iter: 0; alpha: 0.300000]
Nodes      | 22000 (8114, 8012)
Edges      | 11000
<k>        | 1 (7)
Density    | 2.27283e-05
<C>        | 0
r          | -0.00708395
Diameter90 | 5.01217
<d>        | 0.00829462
LCC        | 0.922727% (11001)

graph      | ExpandingShrinking [iter: 5000; alpha: 0.300000]
Nodes      | 23932 (8378, 7420)
Edges      | 14915
<k>        | 1.24645 (12)
Density    | 2.60425e-05
<C>        | 0
r          | 0.0278359
Diameter90 | 19.9852
<d>        | 1.97525
LCC        | 20.3075% (10721)

graph      | ExpandingShrinking [iter: 10000; alpha: 0.300000]
Nodes      | 25926 (8878, 6848)
Edges      | 19556
<k>        | 1.5086 (18)
Density    | 2.90955e-05
<C>        | 0.000128571
r          | -0.023376
Diameter90 | 21.1039
<d>        | 3.51947
LCC        | 36.0256% (10580)

graph      | ExpandingShrinking [iter: 15000; alpha: 0.300000]
Nodes      | 28114 (9219, 6446)
Edges      | 25497
<k>        | 1.81383 (16)
Density    | 3.22596e-05
<C>        | 0
r          | -0.00667231
Diameter90 | 17.639
<d>        | 3.77306
LCC        | 44.8958% (10608)

graph      | ExpandingShrinking [iter: 20000; alpha: 0.300000]
Nodes      | 29926 (9361, 6001)
Edges      | 32220
<k>        | 2.15331 (26)
Density    | 3.59785e-05
<C>        | 1.79013e-05
r          | 0.00488697
Diameter90 | 16.6714
<d>        | 4.40404
LCC        | 52.4293% (10458)

graph      | ExpandingShrinking [iter: 25000; alpha: 0.300000]
Nodes      | 32182 (9999, 5522)
Edges      | 41460
<k>        | 2.5766 (28)
Density    | 4.00329e-05
<C>        | 2.93963e-05
r          | 0.0361923
Diameter90 | 14.6693
<d>        | 4.3372
LCC        | 57.6533% (10799)

graph      | ExpandingShrinking [iter: 30000; alpha: 0.300000]
Nodes      | 33876 (9897, 5057)
Edges      | 50389
<k>        | 2.97491 (33)
Density    | 4.39101e-05
<C>        | 5.65814e-06
r          | -0.0144848
Diameter90 | 12.7539
<d>        | 4.40006
LCC        | 62.3804% (10488)

graph      | ExpandingShrinking [iter: 35000; alpha: 0.300000]
Nodes      | 36112 (10634, 4693)
Edges      | 61606
<k>        | 3.41194 (42)
Density    | 4.72424e-05
<C>        | 1.21431e-05
r          | -0.00940506
Diameter90 | 12.0179
<d>        | 4.2999
LCC        | 64.8842% (11076)

graph      | ExpandingShrinking [iter: 40000; alpha: 0.300000]
Nodes      | 37872 (10490, 4360)
Edges      | 76261
<k>        | 4.0273 (49)
Density    | 5.31713e-05
<C>        | 0.000155063
r          | -0.00903309
Diameter90 | 11.3876
<d>        | 4.2579
LCC        | 67.9579% (10827)

graph      | ExpandingShrinking [iter: 45000; alpha: 0.300000]
Nodes      | 39990 (10725, 4290)
Edges      | 90860
<k>        | 4.54414 (51)
Density    | 5.68173e-05
<C>        | 0.000253128
r          | -0.0202504
Diameter90 | 10.1126
<d>        | 4.07689
LCC        | 69.8125% (11010)

graph      | ExpandingShrinking [iter: 50000; alpha: 0.300000]
Nodes      | 41982 (10870, 4241)
Edges      | 106184
<k>        | 5.05855 (86)
Density    | 6.02481e-05
<C>        | 6.71733e-05
r          | 0.0275156
Diameter90 | 10.3358
<d>        | 4.05647
LCC        | 71.5807% (11084)

graph      | ExpandingShrinking [iter: 55000; alpha: 0.300000]
Nodes      | 43690 (11156, 4003)
Edges      | 125615
<k>        | 5.75029 (83)
Density    | 6.58093e-05
<C>        | 0.000370981
r          | 0.000768844
Diameter90 | 9.92686
<d>        | 3.85655
LCC        | 72.5475% (11322)

graph      | ExpandingShrinking [iter: 60000; alpha: 0.300000]
Nodes      | 46206 (11529, 4088)
Edges      | 138241
<k>        | 5.98368 (84)
Density    | 6.47515e-05
<C>        | 0.000198249
r          | -0.0452772
Diameter90 | 10.213
<d>        | 3.87866
LCC        | 73.5749% (11663)

graph      | ExpandingShrinking [iter: 65000; alpha: 0.300000]
Nodes      | 47956 (11672, 3559)
Edges      | 166376
<k>        | 6.93869 (91)
Density    | 7.23459e-05
<C>        | 0.000390792
r          | 0.0210618
Diameter90 | 8.84942
<d>        | 3.74326
LCC        | 74.5663% (11784)

graph      | ExpandingShrinking [iter: 70000; alpha: 0.300000]
Nodes      | 49558 (11806, 3726)
Edges      | 195372
<k>        | 7.88458 (106)
Density    | 7.95506e-05
<C>        | 0.000533408
r          | -0.0141431
Diameter90 | 8.3153
<d>        | 3.57614
LCC        | 75.4611% (11887)

graph      | ExpandingShrinking [iter: 75000; alpha: 0.300000]
Nodes      | 52082 (12185, 3349)
Edges      | 224497
<k>        | 8.62091 (125)
Density    | 8.27644e-05
<C>        | 0.000452359
r          | -0.0021226
Diameter90 | 7.87564
<d>        | 3.50156
LCC        | 75.9706% (12256)

graph      | ExpandingShrinking [iter: 80000; alpha: 0.300000]
Nodes      | 54112 (12666, 2920)
Edges      | 259686
<k>        | 9.59809 (109)
Density    | 8.86889e-05
<C>        | 0.000259623
r          | -0.00194097
Diameter90 | 7.59261
<d>        | 3.36798
LCC        | 75.9443% (12736)

graph      | ExpandingShrinking [iter: 85000; alpha: 0.300000]
Nodes      | 55912 (12246, 3086)
Edges      | 291837
<k>        | 10.4392 (129)
Density    | 9.33551e-05
<C>        | 0.000553674
r          | 0.00256038
Diameter90 | 7.47289
<d>        | 3.42642
LCC        | 77.6041% (12300)

graph      | ExpandingShrinking [iter: 90000; alpha: 0.300000]
Nodes      | 58012 (12882, 2955)
Edges      | 322996
<k>        | 11.1355 (139)
Density    | 9.59774e-05
<C>        | 0.000673117
r          | 0.0022031
Diameter90 | 7.92542
<d>        | 3.32577
LCC        | 77.4788% (12921)

graph      | ExpandingShrinking [iter: 95000; alpha: 0.300000]
Nodes      | 60104 (12990, 2739)
Edges      | 363423
<k>        | 12.0931 (137)
Density    | 0.000100603
<C>        | 0.000634555
r          | -0.0174893
Diameter90 | 7.23693
<d>        | 3.28566
LCC        | 78.1346% (13018)

graph      | ExpandingShrinking [iter: 100000; alpha: 0.300000]
Nodes      | 62100 (13187, 2451)
Edges      | 428013
<k>        | 13.7846 (150)
Density    | 0.000110989
<C>        | 0.000368393
r          | 0.00715079
Diameter90 | 6.82276
<d>        | 3.19987
LCC        | 78.6457% (13205)

graph      | ExpandingShrinking [iter: 0; alpha: 0.400000]
Nodes      | 22000 (8140, 8025)
Edges      | 11000
<k>        | 1 (7)
Density    | 2.27283e-05
<C>        | 0
r          | -0.00187035
Diameter90 | 7.34763
<d>        | 0.0525971
LCC        | 3.12273% (11001)

graph      | ExpandingShrinking [iter: 5000; alpha: 0.400000]
Nodes      | 22866 (7926, 7182)
Edges      | 14256
<k>        | 1.24692 (10)
Density    | 2.72669e-05
<C>        | 6.12263e-05
r          | -0.0163727
Diameter90 | 18.8986
<d>        | 2.4009
LCC        | 27.0883% (10059)

graph      | ExpandingShrinking [iter: 10000; alpha: 0.400000]
Nodes      | 23942 (7854, 6390)
Edges      | 18503
<k>        | 1.54565 (16)
Density    | 3.22804e-05
<C>        | 0
r          | -0.00029616
Diameter90 | 18.1677
<d>        | 3.72932
LCC        | 42.2981% (9355)

graph      | ExpandingShrinking [iter: 15000; alpha: 0.400000]
Nodes      | 25072 (7838, 5763)
Edges      | 23627
<k>        | 1.88473 (24)
Density    | 3.75879e-05
<C>        | 2.45642e-05
r          | 0.0164571
Diameter90 | 16.2089
<d>        | 4.07209
LCC        | 52.1339% (8902)

graph      | ExpandingShrinking [iter: 20000; alpha: 0.400000]
Nodes      | 26004 (7597, 5116)
Edges      | 29957
<k>        | 2.30403 (29)
Density    | 4.43032e-05
<C>        | 0
r          | -0.00742004
Diameter90 | 14.4954
<d>        | 4.49308
LCC        | 60.4407% (8310)

graph      | ExpandingShrinking [iter: 25000; alpha: 0.400000]
Nodes      | 27104 (7457, 4680)
Edges      | 37988
<k>        | 2.80313 (32)
Density    | 5.17125e-05
<C>        | 0.000236561
r          | 0.0115132
Diameter90 | 12.6679
<d>        | 4.4206
LCC        | 65.3151% (7967)

graph      | ExpandingShrinking [iter: 30000; alpha: 0.400000]
Nodes      | 27762 (7306, 4130)
Edges      | 47172
<k>        | 3.39831 (47)
Density    | 6.12066e-05
<C>        | 0.000238147
r          | 0.0208141
Diameter90 | 11.9594
<d>        | 4.20657
LCC        | 69.3034% (7621)

graph      | ExpandingShrinking [iter: 35000; alpha: 0.400000]
Nodes      | 29060 (7412, 3898)
Edges      | 56736
<k>        | 3.90475 (42)
Density    | 6.71866e-05
<C>        | 0.000364082
r          | -0.0135182
Diameter90 | 11.4794
<d>        | 4.15547
LCC        | 71.9098% (7615)

graph      | ExpandingShrinking [iter: 40000; alpha: 0.400000]
Nodes      | 30042 (7099, 3470)
Edges      | 70438
<k>        | 4.6893 (50)
Density    | 7.80484e-05
<C>        | 0.000205953
r          | -0.00757087
Diameter90 | 9.92828
<d>        | 4.05931
LCC        | 74.5889% (7240)

graph      | ExpandingShrinking [iter: 45000; alpha: 0.400000]
Nodes      | 31160 (7113, 3022)
Edges      | 85353
<k>        | 5.47837 (82)
Density    | 8.79099e-05
<C>        | 0.000255124
r          | -0.0212171
Diameter90 | 8.71859
<d>        | 3.83463
LCC        | 76.0462% (7207)

graph      | ExpandingShrinking [iter: 50000; alpha: 0.400000]
Nodes      | 31902 (6892, 2841)
Edges      | 102903
<k>        | 6.45119 (82)
Density    | 0.000101113
<C>        | 0.000560993
r          | -0.0216902
Diameter90 | 8.58006
<d>        | 3.68067
LCC        | 77.5406% (6967)

graph      | ExpandingShrinking [iter: 55000; alpha: 0.400000]
Nodes      | 32804 (6675, 2568)
Edges      | 125780
<k>        | 7.66858 (90)
Density    | 0.000116888
<C>        | 0.00020059
r          | -0.00622847
Diameter90 | 8.04082
<d>        | 3.56819
LCC        | 79.0117% (6724)

graph      | ExpandingShrinking [iter: 60000; alpha: 0.400000]
Nodes      | 33936 (6490, 2327)
Edges      | 152147
<k>        | 8.9667 (113)
Density    | 0.000132116
<C>        | 0.000359431
r          | -0.00802078
Diameter90 | 7.56345
<d>        | 3.48415
LCC        | 80.3689% (6538)

graph      | ExpandingShrinking [iter: 65000; alpha: 0.400000]
Nodes      | 34988 (6394, 1929)
Edges      | 179962
<k>        | 10.2871 (118)
Density    | 0.000147013
<C>        | 0.000843255
r          | 0.00790876
Diameter90 | 7.19524
<d>        | 3.44681
LCC        | 81.5565% (6413)

graph      | ExpandingShrinking [iter: 70000; alpha: 0.400000]
Nodes      | 35458 (6319, 1766)
Edges      | 210750
<k>        | 11.8873 (118)
Density    | 0.00016763
<C>        | 0.000872728
r          | -0.00608115
Diameter90 | 6.68786
<d>        | 3.28791
LCC        | 82.0238% (6337)

graph      | ExpandingShrinking [iter: 75000; alpha: 0.400000]
Nodes      | 37252 (6571, 1633)
Edges      | 243252
<k>        | 13.0598 (158)
Density    | 0.000175295
<C>        | 0.00129804
r          | -0.0024354
Diameter90 | 6.29881
<d>        | 3.1932
LCC        | 82.2077% (6585)

graph      | ExpandingShrinking [iter: 80000; alpha: 0.400000]
Nodes      | 38078 (6027, 1424)
Edges      | 290623
<k>        | 15.2646 (183)
Density    | 0.000200444
<C>        | 0.000922843
r          | -0.0039721
Diameter90 | 6.55486
<d>        | 3.20948
LCC        | 84.1011% (6037)

graph      | ExpandingShrinking [iter: 85000; alpha: 0.400000]
Nodes      | 38806 (6133, 1430)
Edges      | 348734
<k>        | 17.9732 (198)
Density    | 0.000231584
<C>        | 0.000985705
r          | -0.0101177
Diameter90 | 6.21669
<d>        | 3.04869
LCC        | 84.1597% (6137)

graph      | ExpandingShrinking [iter: 90000; alpha: 0.400000]
Nodes      | 39788 (5656, 1281)
Edges      | 401588
<k>        | 20.1864 (276)
Density    | 0.000253681
<C>        | 0.0014315
r          | 0.00256689
Diameter90 | 6.23463
<d>        | 3.07262
LCC        | 85.7696% (5659)

graph      | ExpandingShrinking [iter: 95000; alpha: 0.400000]
Nodes      | 40868 (5766, 1167)
Edges      | 461933
<k>        | 22.6061 (259)
Density    | 0.000276581
<C>        | 0.00164323
r          | -0.00262597
Diameter90 | 5.93366
<d>        | 2.98758
LCC        | 85.8642% (5769)

graph      | ExpandingShrinking [iter: 100000; alpha: 0.400000]
Nodes      | 42190 (5937, 1135)
Edges      | 518550
<k>        | 24.5817 (292)
Density    | 0.000291328
<C>        | 0.00154739
r          | -0.00294597
Diameter90 | 5.57373
<d>        | 2.92711
LCC        | 85.9042% (5942)

graph      | ExpandingShrinking [iter: 0; alpha: 0.500000]
Nodes      | 22000 (8070, 8093)
Edges      | 11000
<k>        | 1 (6)
Density    | 2.27283e-05
<C>        | 3.78788e-05
r          | -0.000571549
Diameter90 | 5.27419
<d>        | 0.010117
LCC        | 1.2% (11002)

graph      | ExpandingShrinking [iter: 5000; alpha: 0.500000]
Nodes      | 21868 (7461, 6868)
Edges      | 13805
<k>        | 1.26258 (13)
Density    | 2.88694e-05
<C>        | 5.6399e-05
r          | 0.029883
Diameter90 | 17.5411
<d>        | 2.58359
LCC        | 31.5987% (9402)

graph      | ExpandingShrinking [iter: 10000; alpha: 0.500000]
Nodes      | 22038 (6966, 5921)
Edges      | 17530
<k>        | 1.59089 (16)
Density    | 3.60958e-05
<C>        | 5.20746e-05
r          | 0.0308461
Diameter90 | 16.3594
<d>        | 3.83155
LCC        | 46.8373% (8181)

graph      | ExpandingShrinking [iter: 15000; alpha: 0.500000]
Nodes      | 21978 (6544, 5132)
Edges      | 21425
<k>        | 1.94968 (19)
Density    | 4.43572e-05
<C>        | 8.72122e-06
r          | 0.0112074
Diameter90 | 14.617
<d>        | 4.50522
LCC        | 58.8088% (7287)

graph      | ExpandingShrinking [iter: 20000; alpha: 0.500000]
Nodes      | 22004 (5915, 4287)
Edges      | 27607
<k>        | 2.50927 (28)
Density    | 5.70211e-05
<C>        | 0.000266094
r          | -0.00859415
Diameter90 | 13.0337
<d>        | 4.53093
LCC        | 66.5379% (6362)

graph      | ExpandingShrinking [iter: 25000; alpha: 0.500000]
Nodes      | 22188 (5543, 3719)
Edges      | 34261
<k>        | 3.08825 (36)
Density    | 6.95958e-05
<C>        | 5.20268e-05
r          | -0.0032801
Diameter90 | 11.2616
<d>        | 4.26473
LCC        | 70.7049% (5828)

graph      | ExpandingShrinking [iter: 30000; alpha: 0.500000]
Nodes      | 21772 (4842, 3057)
Edges      | 42710
<k>        | 3.92339 (53)
Density    | 9.01058e-05
<C>        | 0.000163869
r          | -0.00305472
Diameter90 | 10.1034
<d>        | 4.14006
LCC        | 75.7211% (4980)

graph      | ExpandingShrinking [iter: 35000; alpha: 0.500000]
Nodes      | 22152 (4660, 2768)
Edges      | 52952
<k>        | 4.78079 (61)
Density    | 0.000107914
<C>        | 0.000545402
r          | 0.00947215
Diameter90 | 8.56596
<d>        | 3.92156
LCC        | 77.9614% (4731)

graph      | ExpandingShrinking [iter: 40000; alpha: 0.500000]
Nodes      | 21816 (4090, 2283)
Edges      | 67262
<k>        | 6.1663 (68)
Density    | 0.000141332
<C>        | 0.000792306
r          | 0.00509021
Diameter90 | 8.77503
<d>        | 3.71967
LCC        | 80.6106% (4134)

graph      | ExpandingShrinking [iter: 45000; alpha: 0.500000]
Nodes      | 22406 (3901, 1850)
Edges      | 84353
<k>        | 7.5295 (83)
Density    | 0.000168032
<C>        | 0.000543287
r          | -0.0150313
Diameter90 | 7.60769
<d>        | 3.57642
LCC        | 82.2592% (3925)

graph      | ExpandingShrinking [iter: 50000; alpha: 0.500000]
Nodes      | 22158 (3433, 1620)
Edges      | 104791
<k>        | 9.45853 (115)
Density    | 0.000213443
<C>        | 0.00108902
r          | -0.00534158
Diameter90 | 6.8958
<d>        | 3.42597
LCC        | 84.2224% (3450)

graph      | ExpandingShrinking [iter: 55000; alpha: 0.500000]
Nodes      | 21816 (3190, 1249)
Edges      | 130155
<k>        | 11.9321 (177)
Density    | 0.000273483
<C>        | 0.00172841
r          | -0.0101672
Diameter90 | 6.37129
<d>        | 3.23865
LCC        | 85.286% (3199)

graph      | ExpandingShrinking [iter: 60000; alpha: 0.500000]
Nodes      | 21930 (2800, 1072)
Edges      | 170639
<k>        | 15.5622 (210)
Density    | 0.00035483
<C>        | 0.00247174
r          | -0.00501129
Diameter90 | 6.21437
<d>        | 3.12795
LCC        | 87.0725% (2811)

graph      | ExpandingShrinking [iter: 65000; alpha: 0.500000]
Nodes      | 22342 (2649, 837)
Edges      | 210049
<k>        | 18.8031 (222)
Density    | 0.00042082
<C>        | 0.0028383
r          | -0.00111173
Diameter90 | 5.78972
<d>        | 3.04407
LCC        | 88.1255% (2651)

graph      | ExpandingShrinking [iter: 70000; alpha: 0.500000]
Nodes      | 21552 (2203, 634)
Edges      | 257834
<k>        | 23.9267 (270)
Density    | 0.000555118
<C>        | 0.00398178
r          | -0.00380762
Diameter90 | 5.39209
<d>        | 2.95958
LCC        | 89.7782% (2204)

graph      | ExpandingShrinking [iter: 75000; alpha: 0.500000]
Nodes      | 22378 (2247, 648)
Edges      | 317403
<k>        | 28.3674 (296)
Density    | 0.000633852
<C>        | 0.00376429
r          | -0.00458527
Diameter90 | 5.25621
<d>        | 2.85059
LCC        | 89.9589% (2248)

graph      | ExpandingShrinking [iter: 80000; alpha: 0.500000]
Nodes      | 22316 (1882, 426)
Edges      | 418918
<k>        | 37.5442 (505)
Density    | 0.000841232
<C>        | 0.00596314
r          | 0.0101349
Diameter90 | 4.73262
<d>        | 2.79042
LCC        | 91.5666% (1883)

graph      | ExpandingShrinking [iter: 85000; alpha: 0.500000]
Nodes      | 21646 (1668, 332)
Edges      | 537292
<k>        | 49.6435 (515)
Density    | 0.00114677
<C>        | 0.00875643
r          | 0.00253996
Diameter90 | 4.58631
<d>        | 2.6618
LCC        | 92.2942% (1669)

graph      | ExpandingShrinking [iter: 90000; alpha: 0.500000]
Nodes      | 21944 (1496, 297)
Edges      | 683021
<k>        | 62.2513 (733)
Density    | 0.00141848
<C>        | 0.0100375
r          | 0.00198293
Diameter90 | 4.31389
<d>        | 2.60127
LCC        | 93.1826% (1497)

graph      | ExpandingShrinking [iter: 95000; alpha: 0.500000]
Nodes      | 22160 (1381, 236)
Edges      | 799693
<k>        | 72.1745 (730)
Density    | 0.00162856
<C>        | 0.0110349
r          | -0.00848774
Diameter90 | 4.19841
<d>        | 2.56183
LCC        | 93.7681% (1382)

graph      | ExpandingShrinking [iter: 100000; alpha: 0.500000]
Nodes      | 21976 (1313, 176)
Edges      | 1042402
<k>        | 94.8673 (896)
Density    | 0.00215853
<C>        | 0.0161971
r          | -0.00561349
Diameter90 | 3.96183
<d>        | 2.45759
LCC        | 94.0253% (1314)

graph      | ExpandingShrinking [iter: 0; alpha: 0.600000]
Nodes      | 22000 (8050, 8152)
Edges      | 11000
<k>        | 1 (7)
Density    | 2.27283e-05
<C>        | 0
r          | -0.00423757
Diameter90 | 5.94621
<d>        | 0.0192367
LCC        | 2.04091% (11002)

graph      | ExpandingShrinking [iter: 5000; alpha: 0.600000]
Nodes      | 20924 (6980, 6651)
Edges      | 13231
<k>        | 1.26467 (10)
Density    | 3.02221e-05
<C>        | 0
r          | -0.00205318
Diameter90 | 18.3297
<d>        | 3.18239
LCC        | 34.2573% (8774)

graph      | ExpandingShrinking [iter: 10000; alpha: 0.600000]
Nodes      | 20022 (6148, 5485)
Edges      | 16210
<k>        | 1.61922 (16)
Density    | 4.0438e-05
<C>        | 0.000126244
r          | 0.023715
Diameter90 | 15.9396
<d>        | 4.3109
LCC        | 53.2614% (7157)

graph      | ExpandingShrinking [iter: 15000; alpha: 0.600000]
Nodes      | 18882 (5098, 4366)
Edges      | 19709
<k>        | 2.0876 (19)
Density    | 5.5283e-05
<C>        | 0.000370578
r          | -0.0102901
Diameter90 | 12.8638
<d>        | 4.67287
LCC        | 64.8819% (5609)

graph      | ExpandingShrinking [iter: 20000; alpha: 0.600000]
Nodes      | 18192 (4373, 3600)
Edges      | 24994
<k>        | 2.7478 (32)
Density    | 7.55264e-05
<C>        | 0.000267952
r          | 0.000530468
Diameter90 | 10.9168
<d>        | 4.28028
LCC        | 71.1906% (4658)

graph      | ExpandingShrinking [iter: 25000; alpha: 0.600000]
Nodes      | 17018 (3565, 2659)
Edges      | 30523
<k>        | 3.58714 (34)
Density    | 0.000105399
<C>        | 0.000253694
r          | -0.0136621
Diameter90 | 9.22721
<d>        | 4.16802
LCC        | 76.8187% (3686)

graph      | ExpandingShrinking [iter: 30000; alpha: 0.600000]
Nodes      | 16056 (2906, 2057)
Edges      | 39216
<k>        | 4.8849 (48)
Density    | 0.00015213
<C>        | 0.000552725
r          | 0.00788579
Diameter90 | 8.15606
<d>        | 3.92145
LCC        | 81.1472% (2949)

graph      | ExpandingShrinking [iter: 35000; alpha: 0.600000]
Nodes      | 14796 (2318, 1434)
Edges      | 50372
<k>        | 6.80887 (65)
Density    | 0.000230107
<C>        | 0.00112602
r          | -0.0023462
Diameter90 | 7.56939
<d>        | 3.55909
LCC        | 83.8673% (2340)

graph      | ExpandingShrinking [iter: 40000; alpha: 0.600000]
Nodes      | 13864 (1796, 943)
Edges      | 67010
<k>        | 9.66676 (90)
Density    | 0.000348653
<C>        | 0.00157865
r          | 0.00649744
Diameter90 | 6.55454
<d>        | 3.36847
LCC        | 86.9446% (1803)

graph      | ExpandingShrinking [iter: 45000; alpha: 0.600000]
Nodes      | 13264 (1452, 722)
Edges      | 91808
<k>        | 13.8432 (122)
Density    | 0.000521872
<C>        | 0.00283702
r          | -0.00783281
Diameter90 | 5.87141
<d>        | 3.15294
LCC        | 88.9475% (1458)

graph      | ExpandingShrinking [iter: 50000; alpha: 0.600000]
Nodes      | 12096 (1074, 427)
Edges      | 125361
<k>        | 20.7277 (224)
Density    | 0.00085687
<C>        | 0.0046359
r          | 0.0071051
Diameter90 | 4.98953
<d>        | 2.93736
LCC        | 91.121% (1075)

graph      | ExpandingShrinking [iter: 55000; alpha: 0.600000]
Nodes      | 10816 (783, 245)
Edges      | 174037
<k>        | 32.1814 (366)
Density    | 0.00148781
<C>        | 0.010503
r          | -0.00123383
Diameter90 | 4.60612
<d>        | 2.70977
LCC        | 92.7607% (784)

graph      | ExpandingShrinking [iter: 60000; alpha: 0.600000]
Nodes      | 9726 (497, 178)
Edges      | 266672
<k>        | 54.8369 (481)
Density    | 0.00281938
<C>        | 0.020266
r          | -0.00511542
Diameter90 | 4.11242
<d>        | 2.54844
LCC        | 94.89% (498)

graph      | ExpandingShrinking [iter: 65000; alpha: 0.600000]
Nodes      | 8884 (328, 80)
Edges      | 403134
<k>        | 90.7551 (782)
Density    | 0.00510836
<C>        | 0.0375033
r          | -0.0109422
Diameter90 | 3.87255
<d>        | 2.37064
LCC        | 96.308% (329)

graph      | ExpandingShrinking [iter: 70000; alpha: 0.600000]
Nodes      | 7458 (177, 54)
Edges      | 635196
<k>        | 170.34 (1373)
Density    | 0.0114214
<C>        | 0.0820772
r          | -0.0196071
Diameter90 | 3.60742
<d>        | 2.15623
LCC        | 97.6267% (178)

graph      | ExpandingShrinking [iter: 75000; alpha: 0.600000]
Nodes      | 6916 (94, 35)
Edges      | 1023999
<k>        | 296.125 (1882)
Density    | 0.0214118
<C>        | 0.144076
r          | -0.0382514
Diameter90 | 3.15231
<d>        | 2.03191
LCC        | 98.6408% (95)

graph      | ExpandingShrinking [iter: 80000; alpha: 0.600000]
Nodes      | 5846 (91, 7)
Edges      | 1722359
<k>        | 589.244 (3176)
Density    | 0.0504058
<C>        | 0.301488
r          | -0.0766779
Diameter90 | 2.97035
<d>        | 1.87102
LCC        | 98.4434% (92)

graph      | ExpandingShrinking [iter: 85000; alpha: 0.600000]
Nodes      | 5046 (28, 8)
Edges      | 2685279
<k>        | 1064.32 (3783)
Density    | 0.105483
<C>        | 0.500418
r          | -0.12819
Diameter90 | 2.9597
<d>        | 1.77719
LCC        | 99.4451% (29)

graph      | ExpandingShrinking [iter: 90000; alpha: 0.600000]
Nodes      | 3994 (13, 1)
Edges      | 3538947
<k>        | 1772.13 (3673)
Density    | 0.221905
<C>        | 0.727302
r          | -0.185767
Diameter90 | 2.67168
<d>        | 1.54417
LCC        | 99.6745% (14)

graph      | ExpandingShrinking [iter: 95000; alpha: 0.600000]
Nodes      | 2946 (0, 1)
Edges      | 3298136
<k>        | 2239.06 (2890)
Density    | 0.380146
<C>        | 0.890401
r          | -0.157965
Diameter90 | 2.14825
<d>        | 1.23983
LCC        | 100% (1)

graph      | ExpandingShrinking [iter: 100000; alpha: 0.600000]
Nodes      | 1974 (0, 0)
Edges      | 1862635
<k>        | 1887.17 (1973)
Density    | 0.478248
<C>        | 0.973263
r          | -0.0761414
Diameter90 | 1.99268
<d>        | 1.0435
LCC        | 100% (1)

graph      | ExpandingShrinking [iter: 0; alpha: 0.700000]
Nodes      | 22000 (8167, 7995)
Edges      | 11000
<k>        | 1 (6)
Density    | 2.27283e-05
<C>        | 0
r          | -0.0109791
Diameter90 | 6.5096
<d>        | 0.028549
LCC        | 2.41818% (11001)

graph      | ExpandingShrinking [iter: 5000; alpha: 0.700000]
Nodes      | 19996 (6596, 6467)
Edges      | 12747
<k>        | 1.27495 (11)
Density    | 3.18818e-05
<C>        | 0
r          | 0.0263278
Diameter90 | 16.5286
<d>        | 3.47709
LCC        | 39.2779% (8240)

graph      | ExpandingShrinking [iter: 10000; alpha: 0.700000]
Nodes      | 17980 (5231, 5021)
Edges      | 14940
<k>        | 1.66185 (19)
Density    | 4.62163e-05
<C>        | 6.75354e-05
r          | 0.0195832
Diameter90 | 14.6033
<d>        | 4.35932
LCC        | 57.1969% (6059)

graph      | ExpandingShrinking [iter: 15000; alpha: 0.700000]
Nodes      | 15874 (4014, 3676)
Edges      | 17438
<k>        | 2.19705 (25)
Density    | 6.92072e-05
<C>        | 0.000132762
r          | 0.00470328
Diameter90 | 11.6854
<d>        | 4.45777
LCC        | 68.6342% (4356)

graph      | ExpandingShrinking [iter: 20000; alpha: 0.700000]
Nodes      | 13842 (2890, 2555)
Edges      | 21463
<k>        | 3.10114 (35)
Density    | 0.000112027
<C>        | 0.000188512
r          | -0.00623946
Diameter90 | 9.55254
<d>        | 4.182
LCC        | 76.6724% (3017)

graph      | ExpandingShrinking [iter: 25000; alpha: 0.700000]
Nodes      | 12004 (1981, 1713)
Edges      | 26927
<k>        | 4.48634 (40)
Density    | 0.000186884
<C>        | 0.00122173
r          | -0.00253599
Diameter90 | 8.07813
<d>        | 3.91059
LCC        | 82.4475% (2029)

graph      | ExpandingShrinking [iter: 30000; alpha: 0.700000]
Nodes      | 9870 (1209, 953)
Edges      | 34937
<k>        | 7.07943 (62)
Density    | 0.00035867
<C>        | 0.00189944
r          | -0.0011658
Diameter90 | 7.06957
<d>        | 3.56582
LCC        | 87.5076% (1220)

graph      | ExpandingShrinking [iter: 35000; alpha: 0.700000]
Nodes      | 7574 (601, 445)
Edges      | 51473
<k>        | 13.592 (107)
Density    | 0.0008974
<C>        | 0.00565259
r          | -0.00042404
Diameter90 | 5.38219
<d>        | 3.15594
LCC        | 92.0386% (603)

graph      | ExpandingShrinking [iter: 40000; alpha: 0.700000]
Nodes      | 6004 (360, 184)
Edges      | 78376
<k>        | 26.1079 (224)
Density    | 0.00217457
<C>        | 0.0164219
r          | -0.00224134
Diameter90 | 4.58579
<d>        | 2.74081
LCC        | 94.004% (361)

graph      | ExpandingShrinking [iter: 45000; alpha: 0.700000]
Nodes      | 4214 (131, 59)
Edges      | 133534
<k>        | 63.3764 (448)
Density    | 0.00752152
<C>        | 0.0535332
r          | -0.014117
Diameter90 | 3.89504
<d>        | 2.36299
LCC        | 96.8913% (132)

graph      | ExpandingShrinking [iter: 50000; alpha: 0.700000]
Nodes      | 2118 (22, 4)
Edges      | 287370
<k>        | 271.36 (1175)
Density    | 0.0640906
<C>        | 0.352739
r          | -0.0944869
Diameter90 | 2.98583
<d>        | 1.8697
LCC        | 98.9613% (23)

graph      | ExpandingShrinking [iter: 55000; alpha: 0.700000]
Nodes      | 32 (0, 0)
Edges      | 487
<k>        | 30.4375 (31)
Density    | 0.490927
<C>        | 0.981684
r          | -0.0783789
Diameter90 | 1.28571
<d>        | 1.01815
LCC        | 100% (1)

graph      | ExpandingShrinking [iter: 60000; alpha: 0.700000]
Nodes      | 1 (1, 0)
Edges      | 0
<k>        | 0 (0)
Density    | nan
<C>        | 0
r          | nan
Diameter90 | nan
<d>        | nan
LCC        | 100% (1)

graph      | ExpandingShrinking [iter: 65000; alpha: 0.700000]
Nodes      | 3 (3, 0)
Edges      | 0
<k>        | 0 (0)
Density    | 0
<C>        | 0
r          | nan
Diameter90 | 0
<d>        | 0
LCC        | 33.3333% (3)

graph      | ExpandingShrinking [iter: 70000; alpha: 0.700000]
Nodes      | 2 (2, 0)
Edges      | 0
<k>        | 0 (0)
Density    | 0
<C>        | 0
r          | nan
Diameter90 | 0
<d>        | 0
LCC        | 50% (2)

graph      | ExpandingShrinking [iter: 75000; alpha: 0.700000]
Nodes      | 1 (1, 0)
Edges      | 0
<k>        | 0 (0)
Density    | nan
<C>        | 0
r          | nan
Diameter90 | nan
<d>        | nan
LCC        | 100% (1)

graph      | ExpandingShrinking [iter: 80000; alpha: 0.700000]
Nodes      | 1 (1, 0)
Edges      | 0
<k>        | 0 (0)
Density    | nan
<C>        | 0
r          | nan
Diameter90 | nan
<d>        | nan
LCC        | 100% (1)

graph      | ExpandingShrinking [iter: 85000; alpha: 0.700000]
Nodes      | 4 (4, 0)
Edges      | 0
<k>        | 0 (0)
Density    | 0
<C>        | 0
r          | nan
Diameter90 | 0
<d>        | 0
LCC        | 25% (4)

graph      | ExpandingShrinking [iter: 90000; alpha: 0.700000]
Nodes      | 3 (3, 0)
Edges      | 0
<k>        | 0 (0)
Density    | 0
<C>        | 0
r          | nan
Diameter90 | 0
<d>        | 0
LCC        | 33.3333% (3)

graph      | ExpandingShrinking [iter: 95000; alpha: 0.700000]
Nodes      | 1 (1, 0)
Edges      | 0
<k>        | 0 (0)
Density    | nan
<C>        | 0
r          | nan
Diameter90 | nan
<d>        | nan
LCC        | 100% (1)

graph      | ExpandingShrinking [iter: 100000; alpha: 0.700000]
Nodes      | 3 (3, 0)
Edges      | 0
<k>        | 0 (0)
Density    | 0
<C>        | 0
r          | nan
Diameter90 | 0
<d>        | 0
LCC        | 33.3333% (3)

graph      | ExpandingShrinking [iter: 0; alpha: 0.800000]
Nodes      | 22000 (8192, 7988)
Edges      | 11000
<k>        | 1 (7)
Density    | 2.27283e-05
<C>        | 0
r          | 0.00943124
Diameter90 | 10.4238
<d>        | 0.144403
LCC        | 5.51818% (11002)

graph      | ExpandingShrinking [iter: 5000; alpha: 0.800000]
Nodes      | 18920 (6048, 6306)
Edges      | 12070
<k>        | 1.2759 (13)
Density    | 3.372e-05
<C>        | 0
r          | -0.0272257
Diameter90 | 24.5978
<d>        | 3.9356
LCC        | 41.5222% (7536)

graph      | ExpandingShrinking [iter: 10000; alpha: 0.800000]
Nodes      | 16028 (4511, 4469)
Edges      | 13520
<k>        | 1.68705 (15)
Density    | 5.26314e-05
<C>        | 0
r          | -0.0237879
Diameter90 | 14.9389
<d>        | 4.53561
LCC        | 61.1867% (5128)

graph      | ExpandingShrinking [iter: 15000; alpha: 0.800000]
Nodes      | 13082 (2913, 3023)
Edges      | 15645
<k>        | 2.39184 (22)
Density    | 9.14241e-05
<C>        | 0.000331269
r          | -0.0120279
Diameter90 | 10.8441
<d>        | 4.46534
LCC        | 73.1157% (3154)

graph      | ExpandingShrinking [iter: 20000; alpha: 0.800000]
Nodes      | 9836 (1680, 1612)
Edges      | 18453
<k>        | 3.75214 (46)
Density    | 0.000190754
<C>        | 0.000479445
r          | -0.011819
Diameter90 | 9.30411
<d>        | 3.9977
LCC        | 81.8829% (1723)

graph      | ExpandingShrinking [iter: 25000; alpha: 0.800000]
Nodes      | 7040 (798, 752)
Edges      | 23464
<k>        | 6.66591 (80)
Density    | 0.000473498
<C>        | 0.00272651
r          | -0.00432389
Diameter90 | 6.93355
<d>        | 3.51913
LCC        | 88.3807% (807)

graph      | ExpandingShrinking [iter: 30000; alpha: 0.800000]
Nodes      | 4010 (255, 191)
Edges      | 33116
<k>        | 16.5167 (207)
Density    | 0.00205995
<C>        | 0.0161076
r          | 0.00937957
Diameter90 | 4.78332
<d>        | 2.84819
LCC        | 93.5661% (257)

graph      | ExpandingShrinking [iter: 35000; alpha: 0.800000]
Nodes      | 872 (7, 0)
Edges      | 63796
<k>        | 146.321 (539)
Density    | 0.083996
<C>        | 0.438321
r          | -0.117135
Diameter90 | 2.92602
<d>        | 1.83658
LCC        | 99.1972% (8)

graph      | ExpandingShrinking [iter: 40000; alpha: 0.800000]
Nodes      | 1 (1, 0)
Edges      | 0
<k>        | 0 (0)
Density    | nan
<C>        | 0
r          | nan
Diameter90 | nan
<d>        | nan
LCC        | 100% (1)

graph      | ExpandingShrinking [iter: 45000; alpha: 0.800000]
Nodes      | 1 (1, 0)
Edges      | 0
<k>        | 0 (0)
Density    | nan
<C>        | 0
r          | nan
Diameter90 | nan
<d>        | nan
LCC        | 100% (1)

graph      | ExpandingShrinking [iter: 50000; alpha: 0.800000]
Nodes      | 1 (1, 0)
Edges      | 0
<k>        | 0 (0)
Density    | nan
<C>        | 0
r          | nan
Diameter90 | nan
<d>        | nan
LCC        | 100% (1)

graph      | ExpandingShrinking [iter: 55000; alpha: 0.800000]
Nodes      | 1 (1, 0)
Edges      | 0
<k>        | 0 (0)
Density    | nan
<C>        | 0
r          | nan
Diameter90 | nan
<d>        | nan
LCC        | 100% (1)

graph      | ExpandingShrinking [iter: 60000; alpha: 0.800000]
Nodes      | 2 (2, 0)
Edges      | 0
<k>        | 0 (0)
Density    | 0
<C>        | 0
r          | nan
Diameter90 | 0
<d>        | 0
LCC        | 50% (2)

graph      | ExpandingShrinking [iter: 65000; alpha: 0.800000]
Nodes      | 1 (1, 0)
Edges      | 0
<k>        | 0 (0)
Density    | nan
<C>        | 0
r          | nan
Diameter90 | nan
<d>        | nan
LCC        | 100% (1)

graph      | ExpandingShrinking [iter: 70000; alpha: 0.800000]
Nodes      | 1 (1, 0)
Edges      | 0
<k>        | 0 (0)
Density    | nan
<C>        | 0
r          | nan
Diameter90 | nan
<d>        | nan
LCC        | 100% (1)

graph      | ExpandingShrinking [iter: 75000; alpha: 0.800000]
Nodes      | 2 (2, 0)
Edges      | 0
<k>        | 0 (0)
Density    | 0
<C>        | 0
r          | nan
Diameter90 | 0
<d>        | 0
LCC        | 50% (2)

graph      | ExpandingShrinking [iter: 80000; alpha: 0.800000]
Nodes      | 1 (1, 0)
Edges      | 0
<k>        | 0 (0)
Density    | nan
<C>        | 0
r          | nan
Diameter90 | nan
<d>        | nan
LCC        | 100% (1)

graph      | ExpandingShrinking [iter: 85000; alpha: 0.800000]
Nodes      | 1 (1, 0)
Edges      | 0
<k>        | 0 (0)
Density    | nan
<C>        | 0
r          | nan
Diameter90 | nan
<d>        | nan
LCC        | 100% (1)

graph      | ExpandingShrinking [iter: 90000; alpha: 0.800000]
Nodes      | 1 (1, 0)
Edges      | 0
<k>        | 0 (0)
Density    | nan
<C>        | 0
r          | nan
Diameter90 | nan
<d>        | nan
LCC        | 100% (1)

graph      | ExpandingShrinking [iter: 95000; alpha: 0.800000]
Nodes      | 2 (2, 0)
Edges      | 0
<k>        | 0 (0)
Density    | 0
<C>        | 0
r          | nan
Diameter90 | 0
<d>        | 0
LCC        | 50% (2)

graph      | ExpandingShrinking [iter: 100000; alpha: 0.800000]
Nodes      | 1 (1, 0)
Edges      | 0
<k>        | 0 (0)
Density    | nan
<C>        | 0
r          | nan
Diameter90 | nan
<d>        | nan
LCC        | 100% (1)

graph      | ExpandingShrinking [iter: 0; alpha: 0.900000]
Nodes      | 22000 (8063, 8196)
Edges      | 11000
<k>        | 1 (7)
Density    | 2.27283e-05
<C>        | 0
r          | -0.0104204
Diameter90 | 7.04641
<d>        | 0.0918862
LCC        | 5.45% (11001)

graph      | ExpandingShrinking [iter: 5000; alpha: 0.900000]
Nodes      | 18000 (5743, 5985)
Edges      | 11569
<k>        | 1.28544 (10)
Density    | 3.57088e-05
<C>        | 0.000173016
r          | 0.0242975
Diameter90 | 16.6399
<d>        | 3.90499
LCC        | 45.4278% (7084)

graph      | ExpandingShrinking [iter: 10000; alpha: 0.900000]
Nodes      | 14048 (3633, 4069)
Edges      | 12290
<k>        | 1.74972 (14)
Density    | 6.22807e-05
<C>        | 0.000100675
r          | -0.0112197
Diameter90 | 13.7534
<d>        | 4.5941
LCC        | 65.2904% (4124)

graph      | ExpandingShrinking [iter: 15000; alpha: 0.900000]
Nodes      | 10020 (1904, 2253)
Edges      | 13424
<k>        | 2.67944 (26)
Density    | 0.000133718
<C>        | 0.000152141
r          | -0.00410146
Diameter90 | 10.0149
<d>        | 4.30504
LCC        | 77.8443% (2038)

graph      | ExpandingShrinking [iter: 20000; alpha: 0.900000]
Nodes      | 5938 (716, 864)
Edges      | 15134
<k>        | 5.09734 (55)
Density    | 0.000429286
<C>        | 0.00243205
r          | -0.0215593
Diameter90 | 7.42047
<d>        | 3.68122
LCC        | 87.6389% (725)

graph      | ExpandingShrinking [iter: 25000; alpha: 0.900000]
Nodes      | 2080 (72, 100)
Edges      | 19861
<k>        | 19.0971 (132)
Density    | 0.00459286
<C>        | 0.0312811
r          | -0.021878
Diameter90 | 4.27991
<d>        | 2.72743
LCC        | 96.5385% (73)

graph      | ExpandingShrinking [iter: 30000; alpha: 0.900000]
Nodes      | 1 (1, 0)
Edges      | 0
<k>        | 0 (0)
Density    | nan
<C>        | 0
r          | nan
Diameter90 | nan
<d>        | nan
LCC        | 100% (1)

graph      | ExpandingShrinking [iter: 35000; alpha: 0.900000]
Nodes      | 1 (1, 0)
Edges      | 0
<k>        | 0 (0)
Density    | nan
<C>        | 0
r          | nan
Diameter90 | nan
<d>        | nan
LCC        | 100% (1)

graph      | ExpandingShrinking [iter: 40000; alpha: 0.900000]
Nodes      | 1 (1, 0)
Edges      | 0
<k>        | 0 (0)
Density    | nan
<C>        | 0
r          | nan
Diameter90 | nan
<d>        | nan
LCC        | 100% (1)

graph      | ExpandingShrinking [iter: 45000; alpha: 0.900000]
Nodes      | 1 (1, 0)
Edges      | 0
<k>        | 0 (0)
Density    | nan
<C>        | 0
r          | nan
Diameter90 | nan
<d>        | nan
LCC        | 100% (1)

graph      | ExpandingShrinking [iter: 50000; alpha: 0.900000]
Nodes      | 1 (1, 0)
Edges      | 0
<k>        | 0 (0)
Density    | nan
<C>        | 0
r          | nan
Diameter90 | nan
<d>        | nan
LCC        | 100% (1)

graph      | ExpandingShrinking [iter: 55000; alpha: 0.900000]
Nodes      | 1 (1, 0)
Edges      | 0
<k>        | 0 (0)
Density    | nan
<C>        | 0
r          | nan
Diameter90 | nan
<d>        | nan
LCC        | 100% (1)

graph      | ExpandingShrinking [iter: 60000; alpha: 0.900000]
Nodes      | 1 (1, 0)
Edges      | 0
<k>        | 0 (0)
Density    | nan
<C>        | 0
r          | nan
Diameter90 | nan
<d>        | nan
LCC        | 100% (1)

graph      | ExpandingShrinking [iter: 65000; alpha: 0.900000]
Nodes      | 1 (1, 0)
Edges      | 0
<k>        | 0 (0)
Density    | nan
<C>        | 0
r          | nan
Diameter90 | nan
<d>        | nan
LCC        | 100% (1)

graph      | ExpandingShrinking [iter: 70000; alpha: 0.900000]
Nodes      | 1 (1, 0)
Edges      | 0
<k>        | 0 (0)
Density    | nan
<C>        | 0
r          | nan
Diameter90 | nan
<d>        | nan
LCC        | 100% (1)

graph      | ExpandingShrinking [iter: 75000; alpha: 0.900000]
Nodes      | 1 (1, 0)
Edges      | 0
<k>        | 0 (0)
Density    | nan
<C>        | 0
r          | nan
Diameter90 | nan
<d>        | nan
LCC        | 100% (1)

graph      | ExpandingShrinking [iter: 80000; alpha: 0.900000]
Nodes      | 1 (1, 0)
Edges      | 0
<k>        | 0 (0)
Density    | nan
<C>        | 0
r          | nan
Diameter90 | nan
<d>        | nan
LCC        | 100% (1)

graph      | ExpandingShrinking [iter: 85000; alpha: 0.900000]
Nodes      | 1 (1, 0)
Edges      | 0
<k>        | 0 (0)
Density    | nan
<C>        | 0
r          | nan
Diameter90 | nan
<d>        | nan
LCC        | 100% (1)

graph      | ExpandingShrinking [iter: 90000; alpha: 0.900000]
Nodes      | 1 (1, 0)
Edges      | 0
<k>        | 0 (0)
Density    | nan
<C>        | 0
r          | nan
Diameter90 | nan
<d>        | nan
LCC        | 100% (1)

graph      | ExpandingShrinking [iter: 95000; alpha: 0.900000]
Nodes      | 1 (1, 0)
Edges      | 0
<k>        | 0 (0)
Density    | nan
<C>        | 0
r          | nan
Diameter90 | nan
<d>        | nan
LCC        | 100% (1)

graph      | ExpandingShrinking [iter: 100000; alpha: 0.900000]
Nodes      | 1 (1, 0)
Edges      | 0
<k>        | 0 (0)
Density    | nan
<C>        | 0
r          | nan
Diameter90 | nan
<d>        | nan
LCC        | 100% (1)

graph      | ExpandingShrinking [iter: 0; alpha: 1.000000]
Nodes      | 22000 (8040, 8152)
Edges      | 11000
<k>        | 1 (7)
Density    | 2.27283e-05
<C>        | 0
r          | -0.00173073
Diameter90 | 5.12652
<d>        | 0.0174644
LCC        | 1.8% (11001)

graph      | ExpandingShrinking [iter: 5000; alpha: 1.000000]
Nodes      | 17000 (5396, 5685)
Edges      | 11000
<k>        | 1.29412 (11)
Density    | 3.80645e-05
<C>        | 6.27451e-05
r          | 0.0159556
Diameter90 | 19.3412
<d>        | 3.8343
LCC        | 48.3% (6584)

graph      | ExpandingShrinking [iter: 10000; alpha: 1.000000]
Nodes      | 12000 (2859, 3476)
Edges      | 10995
<k>        | 1.8325 (15)
Density    | 7.63605e-05
<C>        | 0.000224537
r          | 0.0171351
Diameter90 | 11.9177
<d>        | 4.5336
LCC        | 68.575% (3229)

graph      | ExpandingShrinking [iter: 15000; alpha: 1.000000]
Nodes      | 7000 (1069, 1484)
Edges      | 10992
<k>        | 3.14057 (28)
Density    | 0.000224359
<C>        | 0.000558523
r          | 0.00772578
Diameter90 | 9.07127
<d>        | 4.19101
LCC        | 83.3429% (1116)

graph      | ExpandingShrinking [iter: 20000; alpha: 1.000000]
Nodes      | 2000 (113, 144)
Edges      | 10891
<k>        | 10.891 (83)
Density    | 0.00272411
<C>        | 0.0162035
r          | -0.0135948
Diameter90 | 4.81722
<d>        | 2.92261
LCC        | 94.25% (115)

graph      | ExpandingShrinking [iter: 25000; alpha: 1.000000]
Nodes      | 1 (1, 0)
Edges      | 0
<k>        | 0 (0)
Density    | nan
<C>        | 0
r          | nan
Diameter90 | nan
<d>        | nan
LCC        | 100% (1)

graph      | ExpandingShrinking [iter: 30000; alpha: 1.000000]
Nodes      | 1 (1, 0)
Edges      | 0
<k>        | 0 (0)
Density    | nan
<C>        | 0
r          | nan
Diameter90 | nan
<d>        | nan
LCC        | 100% (1)

graph      | ExpandingShrinking [iter: 35000; alpha: 1.000000]
Nodes      | 1 (1, 0)
Edges      | 0
<k>        | 0 (0)
Density    | nan
<C>        | 0
r          | nan
Diameter90 | nan
<d>        | nan
LCC        | 100% (1)

graph      | ExpandingShrinking [iter: 40000; alpha: 1.000000]
Nodes      | 1 (1, 0)
Edges      | 0
<k>        | 0 (0)
Density    | nan
<C>        | 0
r          | nan
Diameter90 | nan
<d>        | nan
LCC        | 100% (1)

graph      | ExpandingShrinking [iter: 45000; alpha: 1.000000]
Nodes      | 1 (1, 0)
Edges      | 0
<k>        | 0 (0)
Density    | nan
<C>        | 0
r          | nan
Diameter90 | nan
<d>        | nan
LCC        | 100% (1)

graph      | ExpandingShrinking [iter: 50000; alpha: 1.000000]
Nodes      | 1 (1, 0)
Edges      | 0
<k>        | 0 (0)
Density    | nan
<C>        | 0
r          | nan
Diameter90 | nan
<d>        | nan
LCC        | 100% (1)

graph      | ExpandingShrinking [iter: 55000; alpha: 1.000000]
Nodes      | 1 (1, 0)
Edges      | 0
<k>        | 0 (0)
Density    | nan
<C>        | 0
r          | nan
Diameter90 | nan
<d>        | nan
LCC        | 100% (1)

graph      | ExpandingShrinking [iter: 60000; alpha: 1.000000]
Nodes      | 1 (1, 0)
Edges      | 0
<k>        | 0 (0)
Density    | nan
<C>        | 0
r          | nan
Diameter90 | nan
<d>        | nan
LCC        | 100% (1)

graph      | ExpandingShrinking [iter: 65000; alpha: 1.000000]
Nodes      | 1 (1, 0)
Edges      | 0
<k>        | 0 (0)
Density    | nan
<C>        | 0
r          | nan
Diameter90 | nan
<d>        | nan
LCC        | 100% (1)

graph      | ExpandingShrinking [iter: 70000; alpha: 1.000000]
Nodes      | 1 (1, 0)
Edges      | 0
<k>        | 0 (0)
Density    | nan
<C>        | 0
r          | nan
Diameter90 | nan
<d>        | nan
LCC        | 100% (1)

graph      | ExpandingShrinking [iter: 75000; alpha: 1.000000]
Nodes      | 1 (1, 0)
Edges      | 0
<k>        | 0 (0)
Density    | nan
<C>        | 0
r          | nan
Diameter90 | nan
<d>        | nan
LCC        | 100% (1)

graph      | ExpandingShrinking [iter: 80000; alpha: 1.000000]
Nodes      | 1 (1, 0)
Edges      | 0
<k>        | 0 (0)
Density    | nan
<C>        | 0
r          | nan
Diameter90 | nan
<d>        | nan
LCC        | 100% (1)

graph      | ExpandingShrinking [iter: 85000; alpha: 1.000000]
Nodes      | 1 (1, 0)
Edges      | 0
<k>        | 0 (0)
Density    | nan
<C>        | 0
r          | nan
Diameter90 | nan
<d>        | nan
LCC        | 100% (1)

graph      | ExpandingShrinking [iter: 90000; alpha: 1.000000]
Nodes      | 1 (1, 0)
Edges      | 0
<k>        | 0 (0)
Density    | nan
<C>        | 0
r          | nan
Diameter90 | nan
<d>        | nan
LCC        | 100% (1)

graph      | ExpandingShrinking [iter: 95000; alpha: 1.000000]
Nodes      | 1 (1, 0)
Edges      | 0
<k>        | 0 (0)
Density    | nan
<C>        | 0
r          | nan
Diameter90 | nan
<d>        | nan
LCC        | 100% (1)

graph      | ExpandingShrinking [iter: 100000; alpha: 1.000000]
Nodes      | 1 (1, 0)
Edges      | 0
<k>        | 0 (0)
Density    | nan
<C>        | 0
r          | nan
Diameter90 | nan
<d>        | nan
LCC        | 100% (1)

