\relax 
\providecommand\zref@newlabel[2]{}
\providecommand\hyper@newdestlabel[2]{}
\providecommand\HyperFirstAtBeginDocument{\AtBeginDocument}
\HyperFirstAtBeginDocument{\ifx\hyper@anchor\@undefined
\global\let\oldcontentsline\contentsline
\gdef\contentsline#1#2#3#4{\oldcontentsline{#1}{#2}{#3}}
\global\let\oldnewlabel\newlabel
\gdef\newlabel#1#2{\newlabelxx{#1}#2}
\gdef\newlabelxx#1#2#3#4#5#6{\oldnewlabel{#1}{{#2}{#3}}}
\AtEndDocument{\ifx\hyper@anchor\@undefined
\let\contentsline\oldcontentsline
\let\newlabel\oldnewlabel
\fi}
\fi}
\global\let\hyper@last\relax 
\gdef\HyperFirstAtBeginDocument#1{#1}
\providecommand\HyField@AuxAddToFields[1]{}
\providecommand\HyField@AuxAddToCoFields[2]{}
\bibstyle{unsrtnat}
\citation{ER59}
\citation{BA99}
\citation{NS19a}
\citation{ER59}
\citation{NSW01}
\citation{Newman2010}
\citation{Newman_2005}
\citation{BA99}
\citation{Pri76}
\citation{WS98}
\citation{NS19a}
\citation{NS19a}
\@LN@col{1}
\providecommand \oddpage@label [2]{}
\babel@aux{english}{}
\@LN@col{2}
\citation{NS19a}
\citation{WS98}
\citation{LKF07}
\citation{WS98}
\@LN@col{1}
\@writefile{lof}{\contentsline {figure}{\numberline {1}{\ignorespaces Realisation of node shrinking.\relax }}{2}{figure.caption.1}}
\providecommand*\caption@xref[2]{\@setref\relax\@undefined{#1}}
\newlabel{fig:shrink}{{1}{2}{Realisation of node shrinking.\relax }{figure.caption.1}{}}
\@writefile{lof}{\contentsline {figure}{\numberline {2}{\ignorespaces Realisation of graph expansion by splitting a node; the two new nodes inherit all edges from the original node.\relax }}{2}{figure.caption.2}}
\newlabel{fig:expand1}{{2}{2}{Realisation of graph expansion by splitting a node; the two new nodes inherit all edges from the original node.\relax }{figure.caption.2}{}}
\newlabel{eq:targetsize}{{1}{2}{}{equation.0.1}{}}
\newlabel{eq:nodes}{{2}{2}{}{equation.0.2}{}}
\@LN@col{2}
\@writefile{loa}{\contentsline {algorithm}{\numberline {1}{\ignorespaces Node splitting in the ES model\relax }}{2}{algorithm.1}}
\@writefile{loa}{\contentsline {algorithm}{\numberline {2}{\ignorespaces Expanding-shrinking model\relax }}{2}{algorithm.2}}
\citation{WS98}
\citation{LKF07}
\@writefile{lof}{\contentsline {figure}{\numberline {3}{\ignorespaces Statistics and properties of networks generated with the ES model with Erdos-Renyi random graph initial seed configuration.\relax }}{3}{figure.caption.3}}
\newlabel{fig:stat-ER}{{3}{3}{Statistics and properties of networks generated with the ES model with Erdos-Renyi random graph initial seed configuration.\relax }{figure.caption.3}{}}
\@LN@col{1}
\@writefile{lof}{\contentsline {figure}{\numberline {4}{\ignorespaces Theoretical sizes of networks calculated with equation \ref  {eq:targetsize}\relax }}{3}{figure.caption.4}}
\newlabel{fig:predicted_sizes}{{4}{3}{Theoretical sizes of networks calculated with equation \ref {eq:targetsize}\relax }{figure.caption.4}{}}
\citation{BB19,BBSA08}
\bibdata{bibliography}
\bibcite{ER59}{{1}{1959}{{Erd{\H o}s and R{\'e}nyi}}{{}}}
\bibcite{BA99}{{2}{1999}{{Barab{\'a}si and Albert}}{{}}}
\bibcite{NS19a}{{3}{2019}{{Nagli{\'c} and {\v S}ubelj}}{{}}}
\bibcite{NSW01}{{4}{2001}{{Newman et~al.}}{{Newman, Strogatz, and Watts}}}
\bibcite{Newman2010}{{5}{2010}{{Newman}}{{}}}
\bibcite{Newman_2005}{{6}{2005}{{Newman}}{{}}}
\bibcite{Pri76}{{7}{1976}{{Price}}{{}}}
\bibcite{WS98}{{8}{1998}{{Watts and Strogatz}}{{}}}
\bibcite{LKF07}{{9}{2007}{{Leskovec et~al.}}{{Leskovec, Kleinberg, and Faloutsos}}}
\bibcite{BB19}{{10}{2019}{{Bagrow and Bollt}}{{}}}
\bibcite{BBSA08}{{11}{2008}{{Bagrow et~al.}}{{Bagrow, Bollt, Skufca, and ben Avraham}}}
\@LN@col{1}
\@writefile{toc}{\contentsline {subsection}{\numberline {A}Degree distributions}{4}{subsection.0.1}}
\@writefile{toc}{\contentsline {subsection}{\numberline {B}Comparison of networks generated with the ES model}{4}{subsection.0.2}}
\@LN@col{2}
\@writefile{lof}{\contentsline {figure}{\numberline {6}{\ignorespaces Heatmap displaying the similarity of generated networks calculated with portrait divergence of networks generated with different $ \alpha $-s \relax }}{4}{figure.caption.6}}
\newlabel{fig:heatmap}{{6}{4}{Heatmap displaying the similarity of generated networks calculated with portrait divergence of networks generated with different $ \alpha $-s \relax }{figure.caption.6}{}}
\@writefile{lof}{\contentsline {figure}{\numberline {5}{\ignorespaces Degree distributions of networks generated with the ES model using ER random graph as initial seed. \relax }}{5}{figure.caption.5}}
\newlabel{fig:degree-distributions}{{5}{5}{Degree distributions of networks generated with the ES model using ER random graph as initial seed. \relax }{figure.caption.5}{}}
\newlabel{LastPage}{{}{5}{}{page.5}{}}
\xdef\lastpage@lastpage{5}
\xdef\lastpage@lastpageHy{5}
